…
res_mcmc$summary(c("sigma2", "W_id"))
#> # A tibble: 21 × 10
#>    variable    mean median     sd    mad      q5    q95  rhat ess_bulk ess_tail
#>    <chr>      <num>  <num>  <num>  <num>   <num>  <num> <num>    <num>    <num>
#>  1 sigma2     1.21   1.21  0.0495 0.0494  1.13    1.29   1.00    3605.    2629.
#>  2 W_id[1,1] -1.93  -1.92  0.290  0.284  -2.41   -1.47   1.00    3888.    3088.
#>  3 W_id[2,1] -0.823 -0.820 0.126  0.128  -1.03   -0.625  1.00    4458.    3471.
#>  4 W_id[3,1]  7.57   7.53  0.444  0.435   6.88    8.31   1.00    3856.    2818.
#>  5 W_id[4,1]  0.454  0.454 0.0914 0.0925  0.305   0.606  1.00    4960.    3249.
#>  6 W_id[5,1]  0.309  0.308 0.133  0.130   0.0928  0.528  1.00    3844.    3277.
#>  7 W_id[6,1]  9.10   9.08  0.523  0.513   8.28    9.99   1.00    3920.    2899.
#>  8 W_id[7,1]  2.41   2.40  0.162  0.161   2.16    2.69   1.00    3910.    3279.
#>  9 W_id[8,1] -7.03  -7.01  0.443  0.437  -7.79   -6.34   1.00    4068.    2774.
#> 10 W_id[9,1] -2.86  -2.85  0.268  0.263  -3.32   -2.44   1.00    3892.    3041.
#> # ℹ 11 more rows
…
